<svg width="1942" height="1172" viewBox="0 0 1942 1172" fill="none" xmlns="http://www.w3.org/2000/svg">
    <g clip-path="url(#clip0)">
        <path d="M642.44 644.329H769.866V777.923H340.46V644.232H467.887H475.387V636.732V271.675V264.175H467.887H340.46V130.581H769.964V264.175H642.44H634.94V271.675V636.829V644.329H642.44Z" fill="#0066CC" stroke="#0066CC" stroke-width="15"/>
        <path d="M1069.75 383.344L1056.65 368.617V388.33V777.826H895.038V130.581H1080.62L1429.64 527.078L1442.77 541.994V522.122V130.581H1602.42V777.923H1420.81L1069.75 383.344Z" fill="#0066CC" stroke="#0066CC" stroke-width="15"/>
        <path d="M503.869 1149.34L503.857 1149.36L503.846 1149.38C501.529 1153.48 498.678 1156.71 495.224 1159.16L495.192 1159.18L495.161 1159.21C491.645 1161.79 487.442 1163.7 482.526 1165.03C477.589 1166.37 472.649 1167 467.594 1167H319.948C315.265 1167 310.458 1166.3 305.609 1164.87C300.846 1163.46 296.615 1161.38 292.945 1158.58C289.262 1155.77 286.314 1152.4 284.126 1148.38C281.995 1144.47 280.82 1140.03 280.82 1134.9V1105.53H328.157V1124.29V1129.29H333.157H454.678H459.678V1124.29V1013.18V1008.18H454.678H420.15V970.566H507.113V1135C507.113 1141 505.958 1145.72 503.869 1149.34Z" fill="#666666" stroke="#666666" stroke-width="10"/>
        <path d="M544.998 1135V970.663H592.041V1124.38V1129.38H597.041H718.562H723.562V1124.38V970.663H770.899V1134.9C770.899 1140.02 769.733 1144.41 767.554 1148.28C765.136 1152.39 762.147 1155.78 758.481 1158.58C754.785 1161.4 750.637 1163.48 745.988 1164.87C741.248 1166.3 736.546 1167 731.869 1167H584.125C578.951 1167 573.933 1166.37 569.239 1165.04C564.532 1163.72 560.38 1161.81 556.709 1159.17C553.145 1156.62 550.315 1153.41 548.117 1149.47C546.13 1145.65 544.998 1140.94 544.998 1135Z" fill="#666666" stroke="#666666" stroke-width="10"/>
        <path d="M856.511 1048.33V1167H808.783V970.663H861.915L979.024 1093.37L987.641 1102.39V1089.91V970.663H1034.68V1166.9H981.558L865.128 1044.88L856.511 1035.85V1048.33Z" fill="#666666" stroke="#666666" stroke-width="10"/>
        <path d="M1120.1 970.663V1166.9H1073.06V970.663H1120.1Z" fill="#666666" stroke="#666666" stroke-width="10"/>
        <path d="M1161.02 988.274L1161.03 988.255L1161.04 988.236C1163.1 984.299 1165.97 981.107 1169.54 978.632C1173.29 976.027 1177.48 974.026 1182.13 972.716C1186.83 971.393 1191.75 970.761 1197.02 970.761H1344.86C1349.54 970.761 1354.24 971.462 1358.98 972.886C1363.63 974.283 1367.78 976.357 1371.47 979.18C1375.15 981.988 1378.14 985.387 1380.56 989.517C1382.79 993.309 1383.89 997.666 1383.89 1002.86V1135.1C1383.89 1140.21 1382.72 1144.6 1380.54 1148.47C1378.13 1152.59 1375.14 1155.98 1371.47 1158.78C1367.78 1161.6 1363.63 1163.67 1358.98 1165.07C1354.24 1166.49 1349.54 1167.2 1344.86 1167.2H1197.02C1191.84 1167.2 1186.83 1166.56 1182.13 1165.24C1177.42 1163.91 1173.27 1162 1169.6 1159.37C1166.04 1156.81 1163.21 1153.6 1161.01 1149.66C1159.02 1145.84 1157.89 1141.13 1157.89 1135.19V1002.76C1157.89 996.768 1159.04 991.97 1161.02 988.274ZM1331.55 1129.38H1336.55V1124.38V1013.28V1008.28H1331.55H1210.03H1205.03V1013.28V1124.38V1129.38H1210.03H1331.55Z" fill="#666666" stroke="#666666" stroke-width="10"/>
        <path d="M1580.17 1056.65H1580.88L1581.56 1056.45C1585.01 1055.45 1589.22 1053.32 1590.24 1048.74L1590.36 1048.2V1047.65V1015.91V1015.02L1590.06 1014.19C1589.26 1012.02 1587.69 1010.18 1585.63 1009.1C1584.48 1008.42 1583.25 1007.81 1581.88 1007.31L1581.05 1007.01H1580.17H1421.78V970.761H1616.47C1618.4 970.761 1620.7 971.374 1623.66 972.969C1626.52 974.565 1629.26 976.687 1631.67 979.175L1631.7 979.206L1631.73 979.237C1634.16 981.653 1636.14 984.452 1637.82 987.533C1639.36 990.351 1639.95 992.747 1639.95 994.876V1060.99C1639.95 1067.26 1638.55 1072.44 1636 1076.57C1633.26 1081 1629.7 1084.62 1625.31 1087.3L1625.28 1087.32L1625.25 1087.34C1620.68 1090.23 1615.56 1092.35 1609.67 1093.59L1609.63 1093.6L1609.58 1093.61C1603.61 1094.98 1597.53 1095.62 1591.43 1095.62H1578.94L1587.98 1104.24L1653.79 1167H1590.13L1512.79 1096.92L1511.36 1095.62H1509.43H1474.8H1469.8V1100.62V1167H1421.78V1056.65H1580.17Z" fill="#666666" stroke="#666666" stroke-width="10"/>
        <path d="M251.849 848.816H269.104V901.004H236.782C186.594 901.004 152.85 890.57 133.429 871.505C114.005 852.438 103.387 820.127 103.387 772.472V571.102C103.387 540.805 96.804 517.194 81.7635 502.452C67.3321 488.307 49.1535 481.32 27.9833 481.32H7.5V429.132H27.9833C49.1681 429.132 67.2563 422.134 81.6862 407.882C96.6926 393.061 103.387 369.484 103.387 338.961V136.616C103.387 88.758 114.009 56.2479 133.441 37.0842C152.859 17.9355 186.592 7.5 236.782 7.5H269.104V59.6884H251.849C230.962 59.6884 213.695 62.0088 200.467 67.044C187.132 72.1204 177.34 80.2077 172.77 91.875C167.881 103.964 165.781 123.556 165.781 149.665V348.503C165.781 372.014 160.412 391.706 150.026 407.922C139.637 424.143 123.909 437.381 102.392 447.461L87.8937 454.252L102.392 461.044C123.909 471.124 139.637 484.362 150.026 500.582C160.412 516.798 165.781 536.491 165.781 560.001V758.84C165.781 778.955 167.514 795.659 171.185 808.728C174.831 821.705 180.648 832.002 189.528 837.985C195.512 842.053 203.943 844.661 214.013 846.319C224.246 848.003 236.893 848.816 251.849 848.816Z" fill="#666666" stroke="#666666" stroke-width="15"/>
        <path d="M1706.3 901.004H1672.9V848.816H1691.33C1707.85 848.816 1721.87 847.555 1733.24 844.908C1744.52 842.282 1753.84 838.143 1760.26 831.883C1766.81 825.491 1771.04 815.731 1773.7 803.85C1776.4 791.827 1777.69 776.764 1777.69 758.84V560.001C1777.69 536.484 1783.03 516.789 1793.39 500.573C1803.74 484.354 1819.42 471.119 1840.89 461.041L1855.35 454.252L1840.89 447.463C1819.42 437.386 1803.74 424.151 1793.39 407.932C1783.03 391.716 1777.69 372.02 1777.69 348.503V149.665C1777.69 129.901 1775.85 113.333 1771.96 100.219C1768.08 87.1379 1761.93 76.7873 1752.8 70.5401L1752.78 70.5257L1752.75 70.5114C1746.75 66.4676 1738.4 63.853 1728.45 62.1889C1718.35 60.5022 1705.95 59.6884 1691.33 59.6884H1672.9V7.5H1706.3C1756.55 7.5 1790.31 18.0193 1809.84 37.0968C1829.27 56.2621 1839.89 88.7685 1839.89 136.616V338.961C1839.89 369.456 1846.47 393.049 1861.49 407.882C1875.91 422.127 1893.9 429.132 1915.09 429.132H1934.5V481.32H1915.09C1893.92 481.32 1875.84 488.308 1861.5 502.459C1846.47 517.201 1839.89 540.809 1839.89 571.102V772.472C1839.89 820.139 1829.26 852.531 1809.86 871.493L1809.85 871.499L1809.84 871.505C1790.43 890.566 1756.59 901.004 1706.3 901.004Z" fill="#666666" stroke="#666666" stroke-width="15"/>
    </g>
    <defs>
        <clipPath id="clip0">
            <rect width="1942" height="1172" fill="white"/>
        </clipPath>
    </defs>
</svg>
